{
    "site_title": "Backpacks.co.il",
    "title_terms_of_use": "Terms of use",
    "title_warranty_agreement": "Warranty agreement",
    "title_shipping_policy": "Shipping policy",
    "menu_home": "Home",
    "menu_about": "About us",
    "menu_contact_us": "Contact us",
    "menu_terms_of_use": "Terms of use",
    "menu_warranty_agreement": "Warrenty agreement",
    "menu_shipping_policy": "Shipping policy",
    "menu_signup": "Sign up",
    "menu_login": "Login",
    "menu_account": "My account",
    "menu_logout": "Log out",
    "label_share": "Share",
    "label_search": "Search",
    "title_cart": "Cart items",
    "title_related_items": "Additional products",
    "title_header_slogan": "All you need for school, a trip and leisure activities",
    "title_footer_slogan": "The world is renewed constantly, its important to stay connected",
    "title_search": "Search results: ",
    "title_checkout": "Checkout",
    "buy_now": "Order now",
    "button_add_to_cart": "Add to cart",
    "label_agree_to_terms": "I agree to the terms and conditions.",
    "label_captcha": "Visual verification:",
    "label_email": "EMail",
    "label_first_name": "First name",
    "label_last_name": "Last name",
    "label_password": "Password",
    "label_password_recovery": "Forgotten password?",
    "label_remember_me": "Remember me",
    "label_repeat_password": "Repeat password",
    "label_regular": "Regular",
    "label_cellphone": "Cell phone:",
    "label_username": "שם משתמש",
    "label_new_password": "New password:",
    "login": "Login",
    "login_dialog_message": "Please enter your username and password below. Password is case sensitive.",
    "login_dialog_title": "Login",
    "recovery_dialog_message": "Please enter your email address to which password recovery link will be sent.",
    "recovery_dialog_title": "Password recovery",
    "sign_up": "Sign up",
    "signup_dialog_message": "Please enter your details below. This information will be used for charging and shipping purposes so make sure data is correct!",
    "signup_dialog_title": "Sign up",
    "copyright_holder": "Copyright &copy; 2016. by <a href=\"http://way2cu.com\" target=\"_blank\">Way2CU</a>.",
    "copyright_text": "All rights reserved."
}
